FOR YOUR

CO N S I D E R AT I O N

BEST ORIGINAL SCREENPLAY
Quentin Tarantino

FOR

YOUR

CO N S I D E R AT I O N

BEST ORIGINAL SCREENPLAY
Quentin Tarantino

www.TWCAwards.com

